---
http_interactions:
- request:
    method: get
    uri: https://www.flickr.com/services/rest?api_key=e1cb2b9b88c8c195d4bd0106235a51af&format=json&method=flickr.photos.search&nojsoncallback=1&per_page=1&text=denver,co
    body:
      encoding: US-ASCII
      string: ''
    headers:
      User-Agent:
      - Faraday v1.4.1
      Accept-Encoding:
      - gzip;q=1.0,deflate;q=0.6,identity;q=0.3
      Accept:
      - "*/*"
  response:
    status:
      code: 200
      message: OK
    headers:
      Content-Type:
      - application/json
      Content-Length:
      - '236'
      Connection:
      - keep-alive
      Date:
      - Mon, 26 Apr 2021 02:54:28 GMT
      Server:
      - Apache/2.4.46 (Ubuntu)
      Set-Cookie:
      - ccc=%7B%22needsConsent%22%3Afalse%2C%22managed%22%3A0%2C%22changed%22%3A0%2C%22info%22%3A%7B%22cookieBlock%22%3A%7B%22level%22%3A0%2C%22blockRan%22%3A0%7D%7D%7D;
        expires=Wed, 26-May-2021 02:54:28 GMT; Max-Age=2592000; path=/; domain=.flickr.com
      X-Content-Type-Options:
      - nosniff
      X-Frame-Options:
      - SAMEORIGIN
      X-Cache:
      - Miss from cloudfront
      Via:
      - 1.1 15e4f26e891877d8d585dc5a26acc46e.cloudfront.net (CloudFront)
      X-Amz-Cf-Pop:
      - DEN52-C1
      X-Amz-Cf-Id:
      - XAJaYjWA83Z8GEGm9GgkX1l8JZPfLHFhAY2_AWkODPj1ZZwOlf5gTw==
    body:
      encoding: UTF-8
      string: '{"photos":{"page":1,"pages":14955,"perpage":1,"total":"14955","photo":[{"id":"51139925445","owner":"20544648@N06","secret":"56d81b1099","server":"65535","farm":66,"title":"IMG_2289","ispublic":1,"isfriend":0,"isfamily":0}]},"stat":"ok"}'
  recorded_at: Mon, 26 Apr 2021 02:54:28 GMT
- request:
    method: get
    uri: https://www.flickr.com/services/rest?api_key=e1cb2b9b88c8c195d4bd0106235a51af&format=json&method=flickr.photos.getInfo&nojsoncallback=1&per_page=1&photo_id=51139925445
    body:
      encoding: US-ASCII
      string: ''
    headers:
      User-Agent:
      - Faraday v1.4.1
      Accept-Encoding:
      - gzip;q=1.0,deflate;q=0.6,identity;q=0.3
      Accept:
      - "*/*"
  response:
    status:
      code: 200
      message: OK
    headers:
      Content-Type:
      - application/json
      Transfer-Encoding:
      - chunked
      Connection:
      - keep-alive
      Vary:
      - Accept-Encoding
      Date:
      - Mon, 26 Apr 2021 02:54:28 GMT
      Server:
      - Apache/2.4.46 (Ubuntu)
      Set-Cookie:
      - ccc=%7B%22needsConsent%22%3Afalse%2C%22managed%22%3A0%2C%22changed%22%3A0%2C%22info%22%3A%7B%22cookieBlock%22%3A%7B%22level%22%3A0%2C%22blockRan%22%3A0%7D%7D%7D;
        expires=Wed, 26-May-2021 02:54:28 GMT; Max-Age=2592000; path=/; domain=.flickr.com
      X-Content-Type-Options:
      - nosniff
      X-Frame-Options:
      - SAMEORIGIN
      X-Cache:
      - Miss from cloudfront
      Via:
      - 1.1 17a5b9b0c17eb15303e6341f5fc26610.cloudfront.net (CloudFront)
      X-Amz-Cf-Pop:
      - DEN52-C1
      X-Amz-Cf-Id:
      - I9J-GhRFtKnaJFNA3wgGAhwos4VHCZju0vmPdigzkcyIPI30QWwWsw==
    body:
      encoding: ASCII-8BIT
      string: '{"photo":{"id":"51139925445","secret":"56d81b1099","server":"65535","farm":66,"dateuploaded":"1619400780","isfavorite":0,"license":"0","safety_level":"0","rotation":0,"owner":{"nsid":"20544648@N06","username":"mudsharkalex","realname":"","location":null,"iconserver":"8132","iconfarm":9,"path_alias":"mudsharkalex"},"title":{"_content":"IMG_2289"},"description":{"_content":"4\/15\/2021
        -- Lucky us! We get to fly the Boeing Max 8."},"visibility":{"ispublic":1,"isfriend":0,"isfamily":0},"dates":{"posted":"1619400780","taken":"2021-04-15
        19:15:01","takengranularity":"0","takenunknown":"0","lastupdate":"1619401666"},"views":"2","editability":{"cancomment":0,"canaddmeta":0},"publiceditability":{"cancomment":1,"canaddmeta":0},"usage":{"candownload":0,"canblog":0,"canprint":0,"canshare":1},"comments":{"_content":"0"},"notes":{"note":[]},"people":{"haspeople":0},"tags":{"tag":[{"id":"20499326-51139925445-3157","author":"20544648@N06","authorname":"mudsharkalex","raw":"Colorado","_content":"colorado","machine_tag":false},{"id":"20499326-51139925445-9669","author":"20544648@N06","authorname":"mudsharkalex","raw":"Denver","_content":"denver","machine_tag":false},{"id":"20499326-51139925445-85148","author":"20544648@N06","authorname":"mudsharkalex","raw":"Denver
        CO","_content":"denverco","machine_tag":false},{"id":"20499326-51139925445-2695","author":"20544648@N06","authorname":"mudsharkalex","raw":"airport","_content":"airport","machine_tag":false},{"id":"20499326-51139925445-446848","author":"20544648@N06","authorname":"mudsharkalex","raw":"Denver
        Airport","_content":"denverairport","machine_tag":false},{"id":"20499326-51139925445-9668","author":"20544648@N06","authorname":"mudsharkalex","raw":"Denver
        International Airport","_content":"denverinternationalairport","machine_tag":false},{"id":"20499326-51139925445-6720","author":"20544648@N06","authorname":"mudsharkalex","raw":"DEN","_content":"den","machine_tag":false},{"id":"20499326-51139925445-24467","author":"20544648@N06","authorname":"mudsharkalex","raw":"Boeing","_content":"boeing","machine_tag":false},{"id":"20499326-51139925445-536542","author":"20544648@N06","authorname":"mudsharkalex","raw":"Boeing
        737","_content":"boeing737","machine_tag":false},{"id":"20499326-51139925445-80338049","author":"20544648@N06","authorname":"mudsharkalex","raw":"Boeing
        737 Max","_content":"boeing737max","machine_tag":false},{"id":"20499326-51139925445-230849216","author":"20544648@N06","authorname":"mudsharkalex","raw":"Boeing
        737 Max 8","_content":"boeing737max8","machine_tag":false},{"id":"20499326-51139925445-101050","author":"20544648@N06","authorname":"mudsharkalex","raw":"737","_content":"737","machine_tag":false},{"id":"20499326-51139925445-6926422","author":"20544648@N06","authorname":"mudsharkalex","raw":"Max
        8","_content":"max8","machine_tag":false},{"id":"20499326-51139925445-521","author":"20544648@N06","authorname":"mudsharkalex","raw":"Southwest","_content":"southwest","machine_tag":false},{"id":"20499326-51139925445-108396","author":"20544648@N06","authorname":"mudsharkalex","raw":"Southwest
        Airlines","_content":"southwestairlines","machine_tag":false}]},"location":{"latitude":"39.863600","longitude":"-104.675700","accuracy":"16","context":"0","locality":{"_content":"Congressional
        District 6"},"neighbourhood":{"_content":""},"region":{"_content":"Colorado"},"country":{"_content":"United
        States"}},"geoperms":{"ispublic":1,"iscontact":0,"isfriend":0,"isfamily":0},"urls":{"url":[{"type":"photopage","_content":"https:\/\/www.flickr.com\/photos\/mudsharkalex\/51139925445\/"}]},"media":"photo"},"stat":"ok"}'
  recorded_at: Mon, 26 Apr 2021 02:54:28 GMT
recorded_with: VCR 6.0.0
