---
http_interactions:
- request:
    method: get
    uri: https://www.flickr.com/services/rest?api_key=ENV[api_key]&format=json&method=flickr.photos.search&nojsoncallback=1&per_page=1&text=fdafda
    body:
      encoding: US-ASCII
      string: ''
    headers:
      User-Agent:
      - Faraday v1.4.1
      Accept-Encoding:
      - gzip;q=1.0,deflate;q=0.6,identity;q=0.3
      Accept:
      - "*/*"
  response:
    status:
      code: 200
      message: OK
    headers:
      Content-Type:
      - application/json
      Content-Length:
      - '226'
      Connection:
      - keep-alive
      Date:
      - Tue, 27 Apr 2021 02:13:19 GMT
      Server:
      - Apache/2.4.46 (Ubuntu)
      Set-Cookie:
      - ccc=%7B%22needsConsent%22%3Afalse%2C%22managed%22%3A0%2C%22changed%22%3A0%2C%22info%22%3A%7B%22cookieBlock%22%3A%7B%22level%22%3A0%2C%22blockRan%22%3A0%7D%7D%7D;
        expires=Thu, 27-May-2021 02:13:19 GMT; Max-Age=2592000; path=/; domain=.flickr.com
      X-Content-Type-Options:
      - nosniff
      X-Frame-Options:
      - SAMEORIGIN
      X-Cache:
      - Miss from cloudfront
      Via:
      - 1.1 a44b9db7a2d103360945ab52619e5016.cloudfront.net (CloudFront)
      X-Amz-Cf-Pop:
      - DEN50-C2
      X-Amz-Cf-Id:
      - 5QHOoMPB3zq_yRpmVQwMZpRab3Mvx7acltr4aIoxcat4hJs0Z-LvUg==
    body:
      encoding: UTF-8
      string: '{"photos":{"page":1,"pages":25,"perpage":1,"total":"25","photo":[{"id":"37477031760","owner":"43158830@N06","secret":"fdd6438641","server":"4467","farm":5,"title":"fdafda","ispublic":1,"isfriend":0,"isfamily":0}]},"stat":"ok"}'
  recorded_at: Tue, 27 Apr 2021 02:13:19 GMT
- request:
    method: get
    uri: https://www.flickr.com/services/rest?api_key=ENV[api_key]&format=json&method=flickr.photos.getInfo&nojsoncallback=1&page=1&per_page=1&photo_id=37477031760
    body:
      encoding: US-ASCII
      string: ''
    headers:
      User-Agent:
      - Faraday v1.4.1
      Accept-Encoding:
      - gzip;q=1.0,deflate;q=0.6,identity;q=0.3
      Accept:
      - "*/*"
  response:
    status:
      code: 200
      message: OK
    headers:
      Content-Type:
      - application/json
      Transfer-Encoding:
      - chunked
      Connection:
      - keep-alive
      Vary:
      - Accept-Encoding
      Date:
      - Tue, 27 Apr 2021 02:13:19 GMT
      Server:
      - Apache/2.4.46 (Ubuntu)
      Set-Cookie:
      - ccc=%7B%22needsConsent%22%3Afalse%2C%22managed%22%3A0%2C%22changed%22%3A0%2C%22info%22%3A%7B%22cookieBlock%22%3A%7B%22level%22%3A0%2C%22blockRan%22%3A0%7D%7D%7D;
        expires=Thu, 27-May-2021 02:13:19 GMT; Max-Age=2592000; path=/; domain=.flickr.com
      X-Content-Type-Options:
      - nosniff
      X-Frame-Options:
      - SAMEORIGIN
      X-Cache:
      - Miss from cloudfront
      Via:
      - 1.1 788f6ff13e09a712f5227945fa34a519.cloudfront.net (CloudFront)
      X-Amz-Cf-Pop:
      - DEN50-C2
      X-Amz-Cf-Id:
      - lVT1SOOR-IrEac4eAHFPL5nrDqotECaisCj2EKPIxHWhhcy0DibLMg==
    body:
      encoding: ASCII-8BIT
      string: '{"photo":{"id":"37477031760","secret":"fdd6438641","server":"4467","farm":5,"dateuploaded":"1508165252","isfavorite":0,"license":"0","safety_level":"0","rotation":0,"originalsecret":"30fe143dc7","originalformat":"jpg","owner":{"nsid":"43158830@N06","username":"Philadelphia
        Ronald McDonald House","realname":"Philadelphia Ronald McDonald House","location":"","iconserver":"7446","iconfarm":8,"path_alias":"philarmh"},"title":{"_content":"fdafda"},"description":{"_content":""},"visibility":{"ispublic":1,"isfriend":0,"isfamily":0},"dates":{"posted":"1508165252","taken":"2017-10-16
        09:42:43","takengranularity":"0","takenunknown":"0","lastupdate":"1508165293"},"views":"73","editability":{"cancomment":0,"canaddmeta":0},"publiceditability":{"cancomment":1,"canaddmeta":0},"usage":{"candownload":1,"canblog":0,"canprint":0,"canshare":1},"comments":{"_content":"0"},"notes":{"note":[]},"people":{"haspeople":0},"tags":{"tag":[]},"urls":{"url":[{"type":"photopage","_content":"https:\/\/www.flickr.com\/photos\/philarmh\/37477031760\/"}]},"media":"photo"},"stat":"ok"}'
  recorded_at: Tue, 27 Apr 2021 02:13:19 GMT
recorded_with: VCR 6.0.0
