---
http_interactions:
- request:
    method: get
    uri: https://www.flickr.com/services/rest?api_key=ENV[api_key]&format=json&method=flickr.photos.search&nojsoncallback=1&per_page=1&text=denver,co
    body:
      encoding: US-ASCII
      string: ''
    headers:
      User-Agent:
      - Faraday v1.4.1
      Accept-Encoding:
      - gzip;q=1.0,deflate;q=0.6,identity;q=0.3
      Accept:
      - "*/*"
  response:
    status:
      code: 200
      message: OK
    headers:
      Content-Type:
      - application/json
      Content-Length:
      - '237'
      Connection:
      - keep-alive
      Date:
      - Tue, 27 Apr 2021 03:48:07 GMT
      Server:
      - Apache/2.4.46 (Ubuntu)
      Set-Cookie:
      - ccc=%7B%22needsConsent%22%3Afalse%2C%22managed%22%3A0%2C%22changed%22%3A0%2C%22info%22%3A%7B%22cookieBlock%22%3A%7B%22level%22%3A0%2C%22blockRan%22%3A0%7D%7D%7D;
        expires=Thu, 27-May-2021 03:48:07 GMT; Max-Age=2592000; path=/; domain=.flickr.com
      X-Content-Type-Options:
      - nosniff
      X-Frame-Options:
      - SAMEORIGIN
      X-Cache:
      - Miss from cloudfront
      Via:
      - 1.1 6cab218159221ab723900fb6fe65d73f.cloudfront.net (CloudFront)
      X-Amz-Cf-Pop:
      - DEN50-C2
      X-Amz-Cf-Id:
      - GTFA8xBRMTB9aMyAO_A0D6-A-EJULiy1xpbD6uyBBnBrfVkU9QsZnw==
    body:
      encoding: UTF-8
      string: '{"photos":{"page":1,"pages":14957,"perpage":1,"total":"14957","photo":[{"id":"51142231625","owner":"20544648@N06","secret":"b81631d2df","server":"65535","farm":66,"title":"IMG_23478","ispublic":1,"isfriend":0,"isfamily":0}]},"stat":"ok"}'
  recorded_at: Tue, 27 Apr 2021 03:48:07 GMT
recorded_with: VCR 6.0.0
