---
http_interactions:
- request:
    method: get
    uri: https://www.flickr.com/services/rest?api_key=e1cb2b9b88c8c195d4bd0106235a51af&format=json&method=flickr.photos.search&nojsoncallback=1&per_page=1&text=littleton,co
    body:
      encoding: US-ASCII
      string: ''
    headers:
      User-Agent:
      - Faraday v1.4.1
      Accept-Encoding:
      - gzip;q=1.0,deflate;q=0.6,identity;q=0.3
      Accept:
      - "*/*"
  response:
    status:
      code: 200
      message: OK
    headers:
      Content-Type:
      - application/json
      Content-Length:
      - '296'
      Connection:
      - keep-alive
      Date:
      - Mon, 26 Apr 2021 15:05:37 GMT
      Server:
      - Apache/2.4.46 (Ubuntu)
      Set-Cookie:
      - ccc=%7B%22needsConsent%22%3Afalse%2C%22managed%22%3A0%2C%22changed%22%3A0%2C%22info%22%3A%7B%22cookieBlock%22%3A%7B%22level%22%3A0%2C%22blockRan%22%3A0%7D%7D%7D;
        expires=Wed, 26-May-2021 15:05:37 GMT; Max-Age=2592000; path=/; domain=.flickr.com
      X-Content-Type-Options:
      - nosniff
      X-Frame-Options:
      - SAMEORIGIN
      X-Cache:
      - Miss from cloudfront
      Via:
      - 1.1 d29afc70fc2fdadee440493854714224.cloudfront.net (CloudFront)
      X-Amz-Cf-Pop:
      - DEN50-C2
      X-Amz-Cf-Id:
      - u1aexojHYThz_-eqGyGewi4otoFQ1H7jlcgbiyUGgetCXyWU4lfYkQ==
    body:
      encoding: UTF-8
      string: '{"photos":{"page":1,"pages":546,"perpage":1,"total":"546","photo":[{"id":"51129621214","owner":"56683178@N06","secret":"5e24d57c58","server":"65535","farm":66,"title":"ATSF
        5086 #230QQ050 Southbound Coal Load at Littleton, CO  July 31, 1988","ispublic":1,"isfriend":0,"isfamily":0}]},"stat":"ok"}'
  recorded_at: Mon, 26 Apr 2021 15:05:37 GMT
- request:
    method: get
    uri: https://www.flickr.com/services/rest?api_key=e1cb2b9b88c8c195d4bd0106235a51af&format=json&method=flickr.photos.getInfo&nojsoncallback=1&per_page=1&photo_id=51129621214
    body:
      encoding: US-ASCII
      string: ''
    headers:
      User-Agent:
      - Faraday v1.4.1
      Accept-Encoding:
      - gzip;q=1.0,deflate;q=0.6,identity;q=0.3
      Accept:
      - "*/*"
  response:
    status:
      code: 200
      message: OK
    headers:
      Content-Type:
      - application/json
      Transfer-Encoding:
      - chunked
      Connection:
      - keep-alive
      Vary:
      - Accept-Encoding
      Date:
      - Mon, 26 Apr 2021 15:05:37 GMT
      Server:
      - Apache/2.4.46 (Ubuntu)
      Set-Cookie:
      - ccc=%7B%22needsConsent%22%3Afalse%2C%22managed%22%3A0%2C%22changed%22%3A0%2C%22info%22%3A%7B%22cookieBlock%22%3A%7B%22level%22%3A0%2C%22blockRan%22%3A0%7D%7D%7D;
        expires=Wed, 26-May-2021 15:05:37 GMT; Max-Age=2592000; path=/; domain=.flickr.com
      X-Content-Type-Options:
      - nosniff
      X-Frame-Options:
      - SAMEORIGIN
      X-Cache:
      - Miss from cloudfront
      Via:
      - 1.1 e7ff4a714a3b1f464db9c76ee954a565.cloudfront.net (CloudFront)
      X-Amz-Cf-Pop:
      - DEN50-C2
      X-Amz-Cf-Id:
      - S5ijp64I5SvRnhYkXsRscd7__h9ZNzSwfsxkhs13_GNAswEqWgNb7g==
    body:
      encoding: ASCII-8BIT
      string: '{"photo":{"id":"51129621214","secret":"5e24d57c58","server":"65535","farm":66,"dateuploaded":"1619023599","isfavorite":0,"license":"0","safety_level":"0","rotation":0,"originalsecret":"7c319e4dab","originalformat":"jpg","owner":{"nsid":"56683178@N06","username":"blupenny99","realname":"tom
        byrnas","location":"Brighton, CO, USA","iconserver":"65535","iconfarm":66,"path_alias":"20tcb10"},"title":{"_content":"ATSF
        5086 #230QQ050 Southbound Coal Load at Littleton, CO  July 31, 1988"},"description":{"_content":"A
        Houston coal load (UFIX reporting marks) begins its descent into the Littleton
        depression, a grade crossing elimination project.  With 6 motors on the head
        end and two pushers on the rear, this load will make good time to Palmer Lake.  The
        helper set is at the Rio Grande controlled Littleton Cross-over and is trying
        to get to the BN Denver Terminal to complete their trip.  Good luck to them.  They
        may still be there. "},"visibility":{"ispublic":1,"isfriend":0,"isfamily":0},"dates":{"posted":"1619023599","taken":"1988-07-31
        12:29:27","takengranularity":"0","takenunknown":"0","lastupdate":"1619281287"},"views":"194","editability":{"cancomment":0,"canaddmeta":0},"publiceditability":{"cancomment":1,"canaddmeta":0},"usage":{"candownload":1,"canblog":0,"canprint":0,"canshare":0},"comments":{"_content":"2"},"notes":{"note":[]},"people":{"haspeople":0},"tags":{"tag":[{"id":"56637856-51129621214-599866","author":"56683178@N06","authorname":"blupenny99","raw":"ATSF","_content":"atsf","machine_tag":0},{"id":"56637856-51129621214-10304","author":"56683178@N06","authorname":"blupenny99","raw":"BN","_content":"bn","machine_tag":0},{"id":"56637856-51129621214-321855694","author":"56683178@N06","authorname":"blupenny99","raw":"Santa
        Fe Rwy","_content":"santaferwy","machine_tag":0},{"id":"56637856-51129621214-350586","author":"56683178@N06","authorname":"blupenny99","raw":"Burlington
        Northern","_content":"burlingtonnorthern","machine_tag":0},{"id":"56637856-51129621214-14369954","author":"56683178@N06","authorname":"blupenny99","raw":"Joint
        Line","_content":"jointline","machine_tag":0},{"id":"56637856-51129621214-11757816","author":"56683178@N06","authorname":"blupenny99","raw":"Littleton,
        CO","_content":"littletonco","machine_tag":0},{"id":"56637856-51129621214-3157","author":"56683178@N06","authorname":"blupenny99","raw":"Colorado","_content":"colorado","machine_tag":0},{"id":"56637856-51129621214-8854","author":"56683178@N06","authorname":"blupenny99","raw":"Trains","_content":"trains","machine_tag":0},{"id":"56637856-51129621214-92338","author":"56683178@N06","authorname":"blupenny99","raw":"Railroads","_content":"railroads","machine_tag":0}]},"urls":{"url":[{"type":"photopage","_content":"https:\/\/www.flickr.com\/photos\/20tcb10\/51129621214\/"}]},"media":"photo"},"stat":"ok"}'
  recorded_at: Mon, 26 Apr 2021 15:05:37 GMT
recorded_with: VCR 6.0.0
